{
  "server": "https://geoserver.globalsiasar.org/geoserver",
  "namespace": {
    "name": "data",
    "url": "https://data.globalsiasar.org"
  },
  "attribution": "© <a href='https://globalsiasar.org'>SIASAR</a>",
  "layers": {
    "community": "communities",
    "system": "systems",
    "service_provider": "service_providers",
    "adm": "regions",
    "schools": "schools",
    "health_centers": "health_centers",
    "technical_provider": "technical_providers"
  },
  "bing_key": "AlMSfR3F4khtlIefjuE_NYpX403LdlGiod36WLn8HlawywtSud-NSgEklCemD5pR",
  "pentaho": {
    "base_url": "//pentaho.globalsiasar.org/pentaho/api/repos/:home:siasar:",
    "username": "siasar",
    "password": "siasar",
    "reports": {
      "community": "COM_Report.prpt",
      "system": "SYS_Report.prpt",
      "service_provider": "SP_Report.prpt",
      "technical_provider": "TAP_Report.prpt"
    }
  }
}
